complete npn data
…
temperature_data_model <- temperature_data %>%
  group_by(species) %>%
  filter(n_distinct(doy) > 10) %>%  # Use n_distinct() for distinct counting
  filter(n_distinct(anom) > 10) %>%  # Use n_distinct() for distinct counting
  filter(n_distinct(norm) > 10) %>%  # Use n_distinct() for distinct counting
  filter(n_distinct(doy, norm, anom) > 30) %>%  # Use n_distinct() for distinct counting
  ungroup() # 7601->6109

# by species colinearity
temperature_data_model %>%
  group_by(species) %>%
  summarise(cor_anom_norm = cor(anom, norm, use = "complete.obs")) %>% 
  arrange(desc(abs(cor_anom_norm)))

# A tibble: 32 × 2
   species              cor_anom_norm
   <chr>                        <dbl>
 1 Acer circinatum             -0.557
 2 Juniperus virginiana        -0.507
 3 Acer macrophyllum           -0.484
 4 Betula nigra                -0.349
 5 Populus fremontii            0.342
 6 Populus deltoides            0.333
 7 Betula lenta                -0.331
 8 Quercus montana              0.276
 9 Ulmus americana              0.265
10 Quercus lobata               0.222
# ℹ 22 more rows
…
data_summary_genus <- temperature_data %>%
  group_by(taxa, individual_id) %>%
  summarise(n = n()) %>%
  group_by(taxa) %>%
  summarise(n = sum(n), n_individual = n_distinct(individual_id)) 

`summarise()` has grouped output by 'taxa'. You can override using the
`.groups` argument.

print(data_summary_species)

# A tibble: 32 × 4
# Groups:   taxa [8]
   taxa   species                   n n_individual
   <chr>  <chr>                 <int>        <int>
 1 Acer   Acer circinatum         104           76
 2 Acer   Acer macrophyllum        43           32
 3 Acer   Acer negundo            170           85
 4 Acer   Acer platanoides         85           56
 5 Acer   Acer rubrum            1855          860
 6 Acer   Acer saccharinum        117           81
 7 Acer   Acer saccharum          570          337
 8 Betula Betula alleghaniensis   180           65
 9 Betula Betula lenta             69           35
10 Betula Betula nigra             95           46
# ℹ 22 more rows
…
